\relax 
\citation{Khaykovich}
\bibcite{Khaykovich}{{1}{}{{}}{{}}}
\bibdata{SolitonpaperNotes}
\bibstyle{apsrev4-1}
\citation{REVTEX41Control}
\citation{apsrev41Control}
\providecommand\NAT@force@numbers{}\NAT@force@numbers
\newlabel{FirstPage}{{}{1}{}{}{}}
\@writefile{toc}{\contentsline {title}{Coupling the mechanical and magnetical properties of a vector bright soliton}{1}{}}
\@writefile{toc}{\contentsline {abstract}{Abstract}{1}{}}
\@writefile{toc}{\contentsline {section}{\numberline {}I. Introdution}{1}{}}
\@writefile{toc}{\contentsline {section}{\numberline {}Act II}{1}{}}
\@writefile{toc}{\contentsline {section}{\numberline {}Act III}{1}{}}
\@writefile{toc}{\contentsline {section}{\numberline {}References}{1}{}}
\newlabel{LastBibItem}{{1}{1}{}{}{}}
\@writefile{toc}{\contentsline {section}{\numberline {}Acknowledgements}{1}{}}
\newlabel{LastPage}{{}{1}{}{}{}}
